API limits and loops
…
res_1990_jan <- rbind(res_1990_jan_1, res_1990_jan_2)
res_1990_jan
#> Simple feature collection with 5066 features and 19 fields
#> Geometry type: POINT
#> Dimension:     XY
#> Bounding box:  xmin: -18.115 ymin: 27.72528 xmax: 4.215556 ymax: 43.65111
#> Geodetic CRS:  WGS 84
#> # A tibble: 5,066 × 20
#>    timestamp           service station_id station_name station_province altitude
#>  * <dttm>              <chr>   <chr>      <chr>        <chr>                 [m]
#>  1 1990-01-01 00:00:00 aemet   0002I      "VANDELLÒS … TARRAGONA              32
#>  2 1990-01-01 00:00:00 aemet   0016A      "REUS AEROP… TARRAGONA              71
#>  3 1990-01-01 00:00:00 aemet   0016B      "REUS (CENT… TARRAGONA             118
#>  4 1990-01-01 00:00:00 aemet   0076       "BARCELONA … BARCELONA               4
#>  5 1990-01-01 00:00:00 aemet   0149D      "MANRESA (L… BARCELONA             291
#>  6 1990-01-01 00:00:00 aemet   0158O      "MONTSERRAT" BARCELONA             738
#>  7 1990-01-01 00:00:00 aemet   0200E      "BARCELONA,… BARCELONA             408
#>  8 1990-01-01 00:00:00 aemet   0229I      "SABADELL A… BARCELONA             146
#>  9 1990-01-01 00:00:00 aemet   0294B      "LA BISBAL … GIRONA                 51
#> 10 1990-01-01 00:00:00 aemet   0321       "CAMPDEVANO… GIRONA                731
#> # ℹ 5,056 more rows
#> # ℹ 14 more variables: mean_temperature [°C], min_temperature [°C],
#> #   max_temperature [°C], mean_relative_humidity [%],
#> #   min_relative_humidity [%], max_relative_humidity [%],
#> #   precipitation [L/m^2], wind_direction [°], mean_wind_speed [m/s],
#> #   max_wind_speed [m/s], insolation [h], max_atmospheric_pressure [hPa],
#> #   min_atmospheric_pressure [hPa], geometry <POINT [°]>
…
