Compatibility between services
…
april_2020_spain
#> Simple feature collection with 20412 features and 19 fields (with 150 geometries empty)
#> Geometry type: POINT
#> Dimension:     XY
#> Bounding box:  xmin: -17.91528 ymin: 27.73583 xmax: 4.215556 ymax: 43.78611
#> Geodetic CRS:  WGS 84
#> # A tibble: 20,412 × 20
#>    timestamp           service station_id station_name station_province altitude
#>    <dttm>              <chr>   <chr>      <chr>        <chr>                 [m]
#>  1 2020-04-01 00:00:00 aemet   0016A      REUS AEROPU… TARRAGONA              71
#>  2 2020-04-01 00:00:00 aemet   0076       BARCELONA A… BARCELONA               4
#>  3 2020-04-01 00:00:00 aemet   0149X      MANRESA      BARCELONA             291
#>  4 2020-04-01 00:00:00 aemet   0200E      BARCELONA, … BARCELONA             408
#>  5 2020-04-01 00:00:00 aemet   0201D      BARCELONA    BARCELONA               6
#>  6 2020-04-01 00:00:00 aemet   0252D      ARENYS DE M… BARCELONA              74
#>  7 2020-04-01 00:00:00 aemet   0255B      SANTA SUSAN… BARCELONA              40
#>  8 2020-04-01 00:00:00 aemet   0324A      RIPOLL       GIRONA                675
#>  9 2020-04-01 00:00:00 aemet   0367       GIRONA AERO… GIRONA                143
#> 10 2020-04-01 00:00:00 aemet   0372C      PORQUERES    GIRONA                157
#> # ℹ 20,402 more rows
#> # ℹ 14 more variables: mean_temperature [°C], min_temperature [°C],
#> #   max_temperature [°C], precipitation [L/m^2], mean_wind_speed [m/s],
#> #   insolation [h], geometry <POINT [°]>, mean_relative_humidity [%],
#> #   min_relative_humidity [%], max_relative_humidity [%],
#> #   mean_wind_direction [°], global_solar_radiation [MJ/m^2],
#> #   solar_radiation [MJ/d/m^2], under_plastic <lgl>
…
