RIA service
…
RIA stations info

Accessing station metadata for RIA is simple:

get_stations_info_from('ria', api_options)
#> Simple feature collection with 123 features and 7 fields
#> Geometry type: POINT
#> Dimension:     XY
#> Bounding box:  xmin: -7.248333 ymin: 36.285 xmax: -1.770278 ymax: 38.49611
#> Geodetic CRS:  WGS 84
#> # A tibble: 123 × 8
#>    service station_id station_name         station_province province_id altitude
#>  * <chr>   <chr>      <chr>                <chr>                  <int>      [m]
#>  1 ria     14-2       Adamuz               Córdoba                   14      145
#>  2 ria     4-10       Adra                 Almería                    4        2
#>  3 ria     23-6       Alcaudete            Jaén                      23      640
#>  4 ria     4-2        Almería              Almería                    4        5
#>  5 ria     21-10      Almonte              Huelva                    21       13
#>  6 ria     21-103     Almonte bajo plásti… Huelva                    21       38
#>  7 ria     21-104     Almonte bajo plásti… Huelva                    21       23
#>  8 ria     18-11      Almuñecar            Granada                   18       29
#>  9 ria     18-9       Almuñecar            Granada                   18       49
#> 10 ria     29-3       Antequera            Málaga                    29      457
#> # ℹ 113 more rows
#> # ℹ 2 more variables: under_plastic <lgl>, geometry <POINT [°]>
…
